1,0.2
2,0.2
3,0.2
4,0.2
5,0.2
6,0.2
7,0.2
8,0.2
9,0.2
10,0.2
11,0.5
12,0.5
13,0.5
14,0.5
15,0.5
16,0.5
17,0.5
18,0.5
19,0.5
20,0.5
21,0.9
22,0.9
23,0.9
24,0.9
25,0.9
26,0.9
27,0.9
28,0.9
29,0.9
30,0.9
